{
  "project_info": {
    "project_number": "929703425713",
    "project_id": "login-signup-d47c7",
    "storage_bucket": "login-signup-d47c7.appspot.com"
  },
  "client": [
    {
      "client_info": {
        "mobilesdk_app_id": "1:929703425713:android:476e85cb94f17263855490",
        "android_client_info": {
          "package_name": "com.example.login_signup_bloc_app"
        }
      },
      "oauth_client": [
        {
          "client_id": "929703425713-e9tvtrbl78a7uo7atl2ks6j897a6rfvp.apps.googleusercontent.com",
          "client_type": 3
        }
      ],
      "api_key": [
        {
          "current_key": "AIzaSyC89tZCI8ar78t0HHN5w2d_nIjhnjYAmwg"
        }
      ],
      "services": {
        "appinvite_service": {
          "other_platform_oauth_client": [
            {
              "client_id": "929703425713-e9tvtrbl78a7uo7atl2ks6j897a6rfvp.apps.googleusercontent.com",
              "client_type": 3
            }
          ]
        }
      }
    }
  ],
  "configuration_version": "1"
}